'- O Gigante e a Cidade , ZX-Spectrum , 49 Jogos Explosivos Para o ZX Spectrum , Página 52
'- Não testado
'- Digitador desconhecido

'carregador

  10 REM AVENTURA \* NEIL                 PELLINACCI 1983
  20 BORDER 0: PAPER 0: INK 7: BRIGHT 1: CLS
  30 CLEAR 32767
  40 POKE 23609,100: POKE 23656,8: POKE 23624,71
  50 LOAD ""

'programa principal

  12 PRINT '"ESTOU JUNTO 'A PORTA DO GIGANTE."
  13 IF O(9) THEN PRINT "NAO TENHO ARMAS E DEVO FUGIR DE-PRESSA."
  14 LET S=P: RETURN
  18 PRINT '"ESTOU NUMA PEQUENA LOJA, QUE    VENDE COMIDA PARA CAES.": LET S=P: RETURN
  33 PRINT '"ESTOU NUMA GRUTA ESCURA. VEJO   UMA PORTA PARA NORTE, E UMA CLA-REIRA PARA ESTE."
  34 LET N=P: LET S=P: LET E=P: RETURN
  36 PRINT '"ESTOU NUMA CLAREIRA. A GRUTA EN-CONTRA-SE A OESTE.": LET E=P: RETURN
  39 PRINT '"ESTOU NUM CAMINHO QUE SE DIRIGE PARA SUL. VEJO UMA LOJA A NORTE,E UMA FONTE A ESTE."
  40 LET N=P: LET S=P: LET E=P: LET W=P: RETURN
  42 PRINT '"ESTOU JUNTO A UMA FONTE. EXISTE UMA ESTRADA PARA SUL.": LET S=P: LET W=P: RETURN
  54 PRINT '"ESTOU NUMA PASSAGEM ESTREITA OUESOBE LIGEIRAMENTE PARA NORTE.   VEJO LA' EM CIMA A LUZ DO SOL.": LET N=P: LET U=P: RETURN
  60 PRINT '"ESTOU NUM CAMINHO EM PEDRA SOLTAE VEJO UMA ESTRADA PARA ESTE.": LET N=P: LET E=P
  61 IF O(4)=LOC THEN PRINT "VEJO UM TUMULO A MEUS PES."
  62 RETURN
  63 PRINT '"EXISTE AQUI UMA ESTRADA OUE COR-RE NO SENTIDO NORTE-SUL. A NORTEVEJO UMA FONTE.": LET N=P: LET S=P: RETURN
  69 PRINT '"VEJO UMA PEQUENA CLAREIRA COM   UMA GRANDE ARVORE.": LET S=P: LET E=P: RETURN
  72 PRINT '"ESTOU NUMA FLORESTA, EXISTEM    CLAREIRAS A ESTE E A SUL."
  73 LET W=P: LET E=P: LET S=P: RETURN
  75 PRINT '"ESTOU AGORA NUMA CLAREIRA. VEJO UM POCO PROFUNDO NO SOLO.": LET W=P: LET D=P: RETURN
  84 PRINT '"A ESTRADA TERMINA AQUI. VEJO UM RIO PARA SUL, COM MONTANHAS EM  FUNDO.": LET N=P: RETURN
  87 PRINT '"UM ENORME LOBO SALTOU DAS ARVO- RES E MATOU-ME!": GO TO 9000
  90 PRINT '"ESTOU NUMA CLAREIRA. OICO RUIDOSA OESTE.": LET N=P: LET E=P: LET W=P: RETURN
  93 PRINT '"A FLORESTA TERMINA AQUI. A.SUL  ENCONTRA-SE UM RIO. TALVEZ SEJA POSSIVEL ATRAVESSA-LO.":LET N=P: LET W=P: RETURN
 114 PRINT '"ESTOU NA MARGEM DO RIO. VEJO UM PORTAO ABERTO, GUARDADO POR UM  CAO, E UMA MANSAO MAIS ADIANTE."
 115 LET S=DOG: IF NOT S THEN PRINT "O CAO PODE TRAZER PROBLEMAS..."
 116 RETURN
 117 PRINT '"ESTOU PERTO DE UMA MANSAO. VEJO UMA PORTA 'A MINHA FRENTE.": LET N=P: RETURN
 138 PRINT '"ESTOU DENTRO DA MANSA0. NAO GOS-TARIA DE VIVER AQUI. ESTA TUDO  SUJO E CHEIRA MAL.": LET W=P: RETURN
 800 PRINT '"VEJO...": LET FL=0: FOR Z=P TO 9: IF O(Z)=LOC THEN GO TO 830
 810 NEXT Z: IF NOT FL THEN PRINT "NADA"
 820 RETURN
 830 IF Z=4 AND LOC=20 THEN GO TO 810
 840 PRINT O$(Z): LET FL=1: GO TO 810
 850 IF A$(P)=" " THEN LET A$=A$(2 TO ): GO TO 850
 860 IF A$(LEN A$)=" " THEN LET A$=A$( TO LEN A$-P): GO TO 860
 870 LET B$="": FOR Z=P TO LEN A$: IF A$(Z)=" " THEN:LET B$=A$(Z+P TO ): LET A$=A$( TO Z-P): RETURN
 880 NEXT Z: RETURN
 900 GO SUB 9500: CLS
 998 LET N=0: LET S=0: LET E=0: LET W=0: LET U=0: LET C=0
 999 GO SUB LOC*3: PRINT '"SAIDAS: ";("NORTE " AND N);("SUL " AND S);("ESTE " AND E);("OESTE" AND W): GO SUB 800
1000 INPUT INK 5;"QUE DEVO FAZER? "' LINE A$: IF A$="" THEN GO TO C
1005 GO SUB 850: PRINT INK 6;A$;" ";B$: PRINT
1007 IF LOC=4 AND RND>.88 THEN PRINT "O GIGANTE SALTOU SOBRE MIM E ES-MAGOU-ME O CRANEO. MORRI.": GO TO 9000
1008 IF LOC=39 AND NOT DOG AND RND>.9 THEN PRINT "O CAO ATACOU-ME E MATOU-ME.": GO TO 9000
1010 IF A$="N" AND N THEN LET LOC=LOC-F: GO TO C-P-P
1020 IF A$="S" RND S THEN LET LOC=LOC+F: GO TO C-P-P
1030 IF A$="E" AND E THEM LET LOC=LOC+P: GO TO C-P-P
1040 IF A$="O" AND W THEN LET LOC=LOC-P: GO TO C-P-P
1045 IF A$="O" OR A$="E" OR A$="N" OR A$="S" THEN PRINT "NAO POSSO IR NESSA DIRECCAO.": GO TO C
1050 IF A$="I" THEN GO SUB 2000: GO TO C
1060 IF A$="OLHAR" THEN CLS : GO TO C-P-P
1070 IF A$="DESCER" THEN GO TO 3000
1080 IF A$="SUBIR" THEN GO TO 3100
1090 IF A$="APANHAR" OR A$="AGARRAR" THEN GO TO 2100
1100 IF A$="LARGAR" THEN GO TO 2200
1110 IF A$="MATAR" THEN GO TO 2300
1120 IF A$="EMPURRAR" THEN GO TO 2400
1130 IF A$="ATRAVESSAR" THEN GO TO 2500
1140 IF A$="ABRIR" THEN GO TO 2600
1150 IF A$="ALIMENTAR" THEN GO TO 2700
1160 IF A$="COMPRAR" THEN GO TO 2800
1170 IF A$="GRAVAR" THEN SAVE "AVENTURA" LINE 998: PRINT "VERIFICAR...": VERIFY "AVENTURA": GO TO C
1180 IF A$="DESISTIR" THEN GO TO 8970
1190 IF A$="SOCORRO" THEN PRINT "O GIGANTE NAO ME DEIXARA' SAIR  MESMO QUE EU SEJA BEM EDUCADO...": GO TO C
1200 IF A$="CAVAR" THEN GO TO 2900
1300 PRINT "NAO COMPREENDO.": GO TO C
2000 PRINT '"TENHO O SEGUINTE...": LET FL=0: FOR Z=1 TO 9: IF O(Z)=O THEN PRINT O$(Z): LET FL=P
2010 NEXT Z: IF NOT FL THEN PRINT "NADA."
2020 RETURN
2100 IF B$="" THEN INPUT INK 5;(A$);" COMO ??"' LINE B$: GO TO 2100
2105 IF OB=4 THEN PRINT"NAO POSSO TRANSPORTAR MAIS.": GO TO C
2110 FOR Z=P TO 9: IF O$(Z)( TO LEN B$)=B$ AND O(Z)=LOC THEN GO TO 2130
2120 NEXT Z: PRINT "NAO POSSO FAZER ISSO.": GO TO C
2130 IF B$="OSSO DE CAO" AND LOC=6 THEN PRINT "ISSO SERIA ROUBO!": GO TO C
2140 PRINT "OK..,": LET O(Z)=O: LET OB=OB+P: GO TO C
2200 IF B$="" THEN INPUT INK 5;"QUE DEVO EU ";(A$);"??"' LINE B$: GO TO 2200
2210 FOR Z=P TO 9: IF O$(Z)( TO LEN B$)=B$ AND O(Z)=O THEN PRINT "OK...": LET O(Z)=LOC: LET OB=OB-P: GO TO C
2220 NEXT Z: PRINT "NAO TENHO ";B$;"!": GO TO C
2300 IF B$="" THEN INPUT INK 5;"MATAR QUEM?"' LINE B$: GO TO 2300
2310 IF B$<>"GIGANTE" THEN PRINT "NAO SOU UM ASSASSINO!": GO TO C
2315 IF LOC<>4 THEN PRINT "NAO VEJO NENHUM GIGANTE!": GO TO C
2320 IF O(9) THEN PRINT "NAO TENHO NENHUMA ARMA PARA MA- TAR O GIGANTE.": GO TO C
2330 PRINT ''"OPTIMO. MATAMOS O GIGANTE E CON-SEGUIMOS R LIBERDADE.": GO TO 9000
2400 IF B$="" THEN INPUT INK 5;"QUE DEVO EMPURRAR?"' LINE B$: GO TO 2400
2410 IF B$<>"PORTA" THEN PRINT "NAO POSSO FAZER ISSO.": GO TO C
2420 IF LOC<>39 THEN PRINT "QUE PORTA?": GO TO C
2430 IF NOT DO THEN PRINT "ESTA' FECHADA 'A CHAVE.": GO TO C
2440 PRINT "OK...": LET LOC=LOC+P: GO TO C-P-P
2500 IF B$="" THEN INPUT INK 5;"QUE QUER ATRAVESSAR?"' LINE B$: GO TO 2500
2505 IF B$<>"RIO" THEN PRINT "NAO SOU ASSIM TAO ESPERTO!": GO TO C
2507 IF LOC<>31+AND LOC<>82 THEN PRINT "SE ME MOSTRAR O RIO, EU TENTO...": GO TO C
2510 IF O(2)+THEN PRINT "VOU PRECISAR DE QUALQUER COISA  PARA ME AJUDAR.": GO TO C
2520 PRINT "OK...": LET LOC=LOC+(LOC=31)-(LOC=32): GO TO C-P-P
2600 IF B$="" THEN INPUT INK 5;"POR FAVOR CONTINUE A ORDEM."' LINE B$: GO TO 2600
2605 IF B$<>"PORTA" THEN PRINT "TALVEZ VA' LEVAR ALGUM TEMPO...": GO TO C
2610 IF LOC<>39 THEN PRINT "NAO ESTOU A VER PORTA NENHUMA!": GO TO C
2620 IF DO THEN PRINT "IRRA! JA' ESTA' ABERTA!": GO TO C
2625 IF O(4) THEN PRINT "NAO TENHO CHAVE...": GO TO C
2630 PRINT "OK...": LET DO=P: GO TO C
2700 IF B$<>"CAO" THEN PRINT "NAO ME PARECE QUE VALHA A PENA.": GO TO C
2710 IF LOC<>32 THEN PRINT "QUAL CAO?!": GO TO C
2720 IF O(P) THEN PRINT "COM O QUE? OS DEDOS?!": GO TO C
2730 PRINT '"O CAO ADORMECEU.": LET DOG=P: LET S=P: LET O(P)=LOC: LET OB=OB-P: GO TO C
2800 IF O(F) THEN PRINT "NAO TENHO DINHEIRO.": GO TO C
2810 IF B$="" THEN INPUT INK 5;"ALGUMA COISA EM ESPECIAL?"' LINE B$: GO TO 2810
2820 IF B$="NAO" THEN PRINT "MAU! JA' ESTOU A PERDER A MINHA PACIENCIA!": GO TO C
2830 IF B$<>"OSSO DE CAO" THEN PRINT "PARA QUE SE E' GRATIS?": GO TO C
2840 IF LOC<>6 THEN PRINT "NAO HA' AQUI NENHUM OSSO.";: GO TO C
2845 IF OB=4 THEN PRINT "NAO POSSO TRANSPORTAR MAIS NADA.": GO TO C
2850 PRINT "OK..,": LET O(P)=O: LET OB=OB+P: GO TO C
2900 IF LOC<>20 THEN PRINT "AINDA NAO POSSO FAZER ISSO.": GO TO C
2910 IF O(4)<>LOC THEN PRINT "NAO HA' NADA AQUI.": GO TO C
2920 PRINT "DESCOBRI UMA CHAVE.": GO TO C
3000 IF LOC<>25 THEN PRINT "PARA ONDE?": GO TO C
3010 IF O(5) THEN PRINT "VOU PARTIR O PESCOCO!": GO TO C
3020 PRINT "OK...": LET LOC=LOC-F: GO TO C-P-P
3100 IF LOC<>18 THEN PRINT "AINDA NAO POSSO FAZER ISSO.": GO TO C
3110 IF O(5) THEN PRINT "COMO ME TROUXE PARA AOUI? PODE- -ME EXPLICAR?"; GO TO C
3120 PRINT "OK...": LET LOC=LOC+F: GO TO C-P-P
8970 CLS : INPUT "TEM A CERTEZA (S/N)? "; LINE A$
8980 IF A$="S" OR A$="SIM" THEN GO TO 9000
8990 GO TO C
9000 INPUT "QUER OUTRA AVENTURA (S/N)?"; LINE A$
9010 IF A$="S" OR A$="SIM" THEN RUN 900
9020 IF A$="N" OR A$="NAO" THEN STOP
9030 GO TO 9000
9500 LET O=PI-PI: LET P=PI/PI
9510 LET F=VAL "7": LET LOC=VAL "24": LET OB=O
9520 LET DO=O: LET DOG=O: LET C=VAL "1000": DIM O$(9,11): DIM O(9)
9530 FOR Z=P TO INT (PI*PI): READ O$(Z),Y$: LET O(Z)=VAL Y$
9540 NEXT Z
9550 DATA "OSSO DE CAO","6","TABUA","11","ANEL","14","CHAVE","20","CORDA","23";"PEDRA","28","BOLSA","30","LIVRO","39","PISTOLA","40"
9600 RETURN

'carregador - a cidade

  10 REM        A  Cidade
  20 REM   Um Jogo de Aventura
  30 REM De Neil Pellinacci 1883
  40 REM      Spectrum 16 K
  50 REM
  60 REM
  70 BORDER 0: PAPER 0: INK 7: BRIGHT 1
  80 CLEAR 32767: CLS
  90 POKE 23609,100: POKE 23658,8: POKE 23624,71
  95 GO SUB 200
 100 LOAD ""
 200 DIM A$(32): PAPER 6: INK 0: LET A$="        PARE O GRAVADOR.        ": LET L=9: GO SUB 900
 210 PAUSE 100: PAPER 0: CLS
 220 LET A$="            A CIDADE": LET L=3: INK 6: GO SUB 900
 230 LET A$="UMA AVENTURA PARA O ZX SPECTRUM.": LET L=5: GO SUB 900
 240 LET A$="ESCRITA POR NEIL PELLINACCI 1983": INK 5: LET L=8: GO SUB 900
 250 LET A$="      CARREGUE NUMA TECLA.      ": INK 7:.LET L=16: GO SUB 900
 260 LET L=1: PAUSE 1: PAUSE 0: CLS
 265 FOR Z=-20 TO 30 STEP 5: BEEP .01,Z:,BEEP .01,Z/10: BEEP .01,Z-10: BEEP .01,Z+10: NEXT Z
 270 RESTORE
 280 READ A$: IF A$(1)="*" THEN RETURN
 290 IF A$(1)="+" THEN PRINT AT 21,0; INK 6;"      CARREGUE NUMA TECLA.": PAUSE 1: PAUSE 0: CLS : BEEP .1,0: BEEP .1,10: BEEP .1,20: BEEP .3,30: LET L=1: GO TO 280
 300 GO SUB 900: LET L=L+2: GO TO 280
 400 DATA " NESTA AVENTURA VOCE DEVE"
 410 DATA "RECUPERAR DINHEIRO ROUBADO. ESTE"
 420 DATA "DINHEIRO ESTA' POREM GUARDADO NO"
 430 DATA "BANCO. O BANCO PERTENCE AO"
 440 DATA "GANGSTER QUE ROUBOU O SEU"
 450 DATA "DINHEIRO."
 460 DATA " VOCE DEVE PENETRAR NO BANCO"
 470 DATA "E RECUPERAR O DINHEIRO."
 480 DATA "MAS NAO SERA' FACIL CONSEGUIR"
 490 DATA "POROUE PASSARA POR LADRAO."
 500 DATA "+"
 510 DATA " PARA CONTRARIAR ISTO, VOCE"
 520 DATA "AMEACOU A CIDADE COM UMA BOMBA,"
 530 DATA "E PORTANTO A CIDADE ESTA' VAZIA."
 540 DATA "DEVE NO ENTANTO EVITAR QUE A"
 550 DATA "POLICIA O CONFUNDA, DADO QUE"
 560 DATA "ESTA NADA SABE SOBRE A SUA"
 570 DATA "MISSAO SECRETA."
 580 DATA " QUANDO TIVER RECUPERADO O"
 590 DATA "DINHEIRO, DEVE PROCURAR O SEU"
 600 DATA "CONTACTO, QUE O AJUDARA A FUGIR."
 610 DATA "+"
 620 DATA " PARA JOGAR, ESCREVA AS ORDENS"
 630 DATA "EM PORTUGUES, USANDO VERBOS E"
 640 DATA "SUBSTANTIVOS. USE 'N' PARA IR"
 650 DATA "PARA NORTE, 'S' PARA SUL, ETC."
 660 DATA " SE QUISER PARAR, ESCREVA"
 670 DATA "'DESISTIR' OU 'PARAR'. 'GRAVAR'"
 680 DATA "GRAVA O JOGO EM CASSETTE, PARA"
 690 DATA "PODER TERMINA-LO MAIS TARDE."
 700 DATA "+"
 710 DATA "","","",""," PONHA O GRAVADOR EM MOVIMENTO."
 720 DATA "*"
 800 PAPER 0: INK 7: STOP
 900 FOR Z=32 TO 1 STEP -1: PRINT AT L,0;A$(Z TO ): NEXT Z: RETURN

'programs principal

   9 PRINT '"ESTOU NUMA ESTACAO DE METRO. ES-TA' UN COMBOIO PRESTES A PARTIR.NO EXTERIOR ESPERA UM TAXI.": RETURN
  12 PRINT '"ESTOU JUNTO A UM TALHO. VEJO UM PREDIO EM CONSTRUCAO A LESTE.": LET E=P: LET S=P: RETURN
  15 PRINT '"CAIU SOBRE MIM UMA ENORME CHAPA DE ACO. MORRI.": GO TO 9000
  21 PRINT '"ESTOU NO EXTERIOR DO BANCO. A   PORTA ENCONTRA-SE 'A MINHA FREN-TE. A RUA CONTINUA PARA LESTE.": LET E=P: LET DO1=O: RETURN
  24 PRINT '"ESTOU NUMA RUA DESERTA, ONDE SO'VEJO UM TAXI. A SUL FICA O MER- CADO.": LET E=P: LET W=P: LET S=P: RETURN
  27 PRINT '"ESTOU NO INTERIOR DE UMA GRANDE LOJA. NAO VEJO NINGUEM. EXISTE  UM CAFE PARA LESTE.": LET N=P: LET S=P: LET W=P: LET E=P: RETURN
  30 PRINT '"ESTOU NUM PEQUENO CAFE, DESERTO.A LOJA GRANDE FICA A OESTE.": LET W=P: RETURN
  36 PRINT '"ESTOU NO INTERIOR DO BANCO. NAO OICO QUALQUER RUIDO. ";: IF GU THEN PRINT "VEJO UM   GUARDA DE COSTAS PARA MIM.";
  37 PRINT : LET N=P: LET S=NOT GU: RETURN
  39 PRINT '"ESTOU NUM MERCADO DE RUA. A ESTEVEJO UMA ESQUADRA, E UM LOCAL DECONSTRUCAO A SUL."
  40 LET N=P: LET S=P: LET E=P: RETURN
  42 PRINT '"CHEGUEI 'A ESOUADRA. NAO ESTA'  DESERTA..."
  43 IF NOT O(7) THEN PRINT "UM POLICIA VE O DINHEIRO E DA-MEORDEM DE PRISAO.": GO TO 9000
  44 PRINT "UM POLICIA TIRA-ME O QUE RECOLHIE COLOCA TUDO NOS SITIOS ONDE   ESTAVA.": LET N=P: LET W=P: GO TO 700
  45 PRINT '"ESTOU NUMA PEQUENA ESTACAO DE   METRO. VEJO UM BURACO NA PAREDE A SUL.": LET S=P: RETURN
  46 PRINT '"ESTOU JUNTO DA PORTA DO COFRE, QUE ESTA' FECHADA."
  49 IF VC THEN PRINT "EXISTE UM BURACO NELA."
  50 LET E=P: LET S=VC: RETURN
  51 PRINT '"VEJO OURS PORTAS, UMA A OESTE,  OUTRA A SUL. A ENTRADA DO COFRE ESTA' A NORTE.": LET N=P: LET S=P: LET W=P: RETURN
  54 PRINT '"ESTOU NUM LOCAL DE CONSTRUCAO,  RODEADO DE MUROS ALTOS.": LET N=P: RETURN
  57 PRINT '"ESTOU NO HALL DE UM GRANDE HOTELE VEJO 'A MINHA FRENTE A RECEP- CAO.": LET E=P: RETURN
  60 PRINT '"ESTOU NA CAVE DE UM GRANDE EDI- FICIO.": LET N=P: LET W=P: RETURN
  63 PRINT '"ESTOU NO INTERIOR DO COFRE. PARAATINGIR O DINHEIRO, DEVO INDICARO CODIGO. EXISTEM 9 BOTOES, E   TENHO DE CARREGAR NO CORRECTO."
  64 LET N=P: RETURN
  66 PRINT '"SURGIU UMA PAREDE ATRAS DE MIM. FUI APANHADO.": GO TO 9000
  78 PRINT '"ESTOU NO INTERIOR DA PRINCIPAL  SALA DO COFRE.": LET N=P: RETURN
 600 IF A$(P)=" " THEN LET A$=A$(2 TO ): GO TO 600
 610 IF A$(LEN A$)=" " THEN LET A$=A$( TO LEN A$-P): GO TO 610
 620 LET B$="": FOR Z=P TO LEN A$: IF A$(Z)=" " THEN LET B$=A$(Z+P TO ): LET A$=A$( TO Z-P): RETURN
 630 NEXT Z: RETURN
 700 RESTORE 8000: FOR Z=P TO 7: READ A$,B$: IF O(Z)=O THEN LET O(Z)=VAL B$
 710 NEXT Z: LET OB=O: RETURN
 800 PRINT '"SAIDAS: ";("NORTE " AND N);("SUL " AND S);("ESTE " AND E);("OESTE" AND y)
 810 PRINT '"VEJO..."
 820 LET FL=O: FOR Z=P TO 7: IF O(Z)=LOC THEN PRINT O$(Z): LET FL=P
 830 NEXT Z: IF NOT FL THEN PRINT "NADA DE INTERESSANTE."
 840 RETURN
 900 G0 SUB 8000: CLS
 999 LET N=O: LET S=O: LET E=O: LET W=O: GO SUB LOC*3: GO SUB 800
1000 INPUT INK 5;"QUE DEVO FAZER?"' LINE A$: IF A$="" THEN GO TO C
1010 IF LOC=12 AND RND>.9 AND GU THEN PRINT "O GUARDA VIROU-SE, VIU-ME E DIS-PAROU SOBRE MIM. MORRI.": GO TO 9000
1050 GO SUB 600: PRINT ' INK 6;A$;" ";B$
1060 IF A$="N" AND N THEN LET LOC=L0C-F: GO TO C-P
1070 IF A$="S" AND S THEN LET LOC=LOC+F: GO TO C-P
1080 IF A$="E" AND E THEN LET LOC=L0C+P: GO TO C-P
1090 IF A$="O" AND W THEN LET LOC=LOC-P: GO TO C-P
1100 IF A$="N" OR A$="S" OR A$="E" OR A$="O" THEN PRINT "NAO POSSO IR NESSA DIRECCAO.": GO TO C
1110 IF A$="APANHAR" OR A$="AGARRAR" THEN GO TO 2000
1120 IF A$="LARGAR" THEN GO TO 2100
1130 IF A$="I" THEN GO SUB 2200: GO TO C
1140 IF A$="OLHAR" THEN CLS : GO TO C-P
1150 IF A$="SOCORRO" THEN GO TO 2300
1160 IF A$="ABORDAR" OR A$="PERSEGUIR" THEN GO TO 2400
1170 IF A$="ABRIR" THEN GO TO 2500
1180 IF A$="EMPURRAR" THEN GO TO 2600
1190 IF A$="DESCER" THEN GO TO 2700
1200 IF A$="DESISTIR" OR A$="PARAR" THEN GO TO 8900
1210 IF A$="LER" OR A$="EXAMINAR" THEN GO TO 2800
1220 IF A$="MATAR" THEN GO TO 2900
1230 IF A$="CORTAR" THEN GO TO 3000
1240 IF A$="CARREGAR" OR A$="PREMIR" THEN GO TO 3100
1250 IF A$="GRAVAR" THEN SAVE "CIDADE" LINE 999: PRINT "VERIFICAR...": VERIFY "CIDADE": GO TO C
1260 IF A$="DIZER" THEN GO TO 3200
1300 PRINT "NAO COMPREENDO.": GOTO C
2000 IF B$="" THEN INPUT INK 5;"APANHAR O QUE ??"' LINE B$: GO TO 2000
2002 IF LEN B$>13 THEN PRINT "NAO POSSO": GO TO C
2005 IF OB=3 THEN PRINT "NAO POSSO TRANSPORTAR MAIS NADA.": GO TO C
2010 FOR Z=P TO 7: IF O$(Z)( TO LEN B$)=B$ AND O(Z)=LOC THEN LET O(Z)=O: LET OB=OB+1: PRINT "OK...": GO TO C
2020 NEXT Z: PRINT "NAO VEJO ";B$;"!": GO TO C
2100 IF B$="" THEN PRINT A$;" O QUE??": GO TO C
2110 IF LEN B$>13 THEN PRINT "NAO POSSO.": GO TO C
2120 FOR Z=P TO 7: IF O$(Z)( TO LEN B$)=B$ THEN PRINT "OK...": LET O(Z)=LOC: LET OB=OB-1: GO TO C
2130 NEXT Z: PRINT "NAO TENHO ";B$;"!": GO TO C
2200 PRINT "TENHO O SEGUINTE...": LET FL=O: FOR Z=P TO 7: IF O(Z)=O THEN PRINT O$(Z): LET FL=P
2210 NEXT Z: IF NOT FL THEN PRINT "NADA."
2220 GO TO C
2300 IF LOC=17 THEN PRINT "PERGUNTE 'A POPULACAO...": GO TO C
2310 PRINT "SIGA A ESTRADA NACIONAL NO. 2...": GO TO C
2400 IF B$="" THEN PRINT A$;" O QUE?": GO TO C
2410 IF B$<>"COMBOIO" AND B$<>"TAXI" THEN PRINT "NAO POSSO.": GO TO C
2420 IF B$="COMBOIO" AND LOC<>3 AND LOC<>15 THEN GO TO 2490
2430 IF B$="TAXI" AND LOC<>3 AND LOC<>8 THEN GO TO 2490
2440 IF B$="COMBOIO" THEN GO TO 2470
2450 IF O(2) THEN PRINT "NAO TENHO DINHEIRO SUFICIENTE.": GO TO C
2460 PRINT "O TAXI PARTE COMIGO DENTRO.": LET LOC=LOC+(F AND LOC=3)-(F AND LOC=8): GO TO C-P
2470 IF O(3) THEN PRINT "PRECISO DE BILHETE!": GO TO C
2480 PRINT "ENTRO E O COMBOIO PARTE.": LET LOC=(3 AND LOC=15)+(15 AND LOC=3): GO TO C-P
2490 PRINT "AINDA NAO POSSO FAZER ISSO.": GO TO C
2500 IF B$="" THEN PRINT "QUE DEVO ABRIR?": GO TO C
2510 IF B$<>"PORTA" THEN PRINT "NAO POSSO FAZER ISSO.": GO TO C
2520 IF LOC<>7 THEN PRINT "QUAL PORTA?": GO TO C
2530 IF DO THEN PRINT "IRRA! JA' ESTA' ABERTA!!": GO TO C
2540 IF O(5) THEN PRINT "PRECISO DA CHAVE.": GO TO C
2550 PRINT "OK...": LET DO=P: GO TO C
2600 IF B$="" THEN PRINT "EMPURRAR O QUE?": GO TO C
2610 IF B$<>"PORTA" THEN PRINT "NAO POSSO...": GO TO C
2620 IF LOC<>7 THEN PRINT "NAO VEJO NENHUMA PORTA...": GO TO C
2630 IF NOT DO THEN PRINT "ESTA' FECHADA 'A CHAVE.": GO TO C
2640 LET DO1=P: PRINT "0K..."''"VEJO UMAS ESCADAS PARA BAIXO...": GO TO C
2700 IF LOC<>7 THEN GO TO 2490
2710 IF NOT DO1 THEN PRINT "HA' UMA PORTA PARA ATRAVESSAR!": GO TO C
2720 PRINT "OK...": LET LOC=LOC+F: GO TO C-P
2800 IF B$="" THEN INPUT INK 5;(A$);" O QUE?!"' LINE B$: GO TO 2800
2810 IF B$<>"PISTA" THEN PRINT "NAO POSSO FAZER ISSO!": GO TO C
2820 IF O(6) THEN PRINT "NAO TENHO NENHUMA PISTA.": GO TO C
2830 PRINT "A PISTA ESTA' ESCRITA NUMA FOLHADE PAPEL A4. DIZ: QUEM CONDUZ   NAO BEBE.": GO TO C
2900 IF B$="" THEN PRINT "MATAR QUEM?": GO TO C
2910 IF B$<>"GUARDA" THEN PRINT "RECUSO-ME POR RAZOES MORAIS.": GO TO C
2920 IF LOC<>12 THEN PRINT "NAO VEJO O GUARDA.": GO TO C
2930 IF O(P) THEN PRINT "NAO TENHO ARMA.": GO TO C
2940 PRINT "OK...": LET GU=O: GO TO C
3000 IF B$="" THEN INPUT INK 5;"QUE DEVO CORTAR?"' LINE B$: GO TO 3000
3010 IF B$<>"PORTA DO COFRE" THEN PRINT "NAO POSSO FAZER ISSO.": GO TO C
3020 IF LOC<>16 THEN PRINT "NAO VEJO A PORTA DO COFRE.": GO TO C
3030 IF O(4) THEN PRINT "NAO TENHO NADA COM QUE CORTAR.": GO TO C
3040 PRINT "OK...": LET VC=P: GO TO C-P
3100 IF LOC<>21 THEN PRINT "NAO VEJO NADA PARA ";A$;"!": GO TO C
3110 IF LEN B$<>P THEN PRINT "PRECISO DE UM NUMERO ENTRE 1 E 9": GO TO C
3120 IF B$<"1" OR B$>"9" THEN PRINT "ISSO NAO E' UM NUMERO!": GO TO C
3130 LET Z=VAL B$: IF Z<>3 THEN LET LOC=LOC+P: GO TO C-P
3140 LET LOC=LOC+F: PRINT "O PORTAO DE FERRO DESLIZA LENTA-MENTE...": GO TO C-P
3200 IF B$="" THEN PRINT "DIZER O QUE?": GO TO C
3210 IF B$<>"PALAVRA DE PASSE" THEN PRINT "NAO POSSO DIZER ISSO": GO TO C
3220 IF LOC=15 AND NOT O(7) THEN PRINT ''"ENCONTREI O CONTACTO, E TERMINEIA MISSAO. O CONTACTO ERA O CON- DUTOR DO COMBOIO.": GO TO 9000
3225 IF LOC=3 OR LOC=8 THEN PRINT "O CONDUTOR DO TAXI DIZ ALGO BAS-TANTE DESAGRADAVEL.": GO TO C
3230 PRINT '"NINGUEM PARECE INTERESSAR-SE.": GO TO C
8000 LET O=PI-PI: LET P=NOT O
8010 LET F=VAL "5": LET LOC=VAL "13"
8020 LET OB=O: LET DO=O: LET GU=P: LET VC=O: LET C=VAL "1000"
8030 DIM O(7): DIM O$(7,17)
8040 RESTORE 8000: FOR Z=P TO 7: READ O$(Z),A$: LET O(Z)=VAL A$: NEXT Z
8050 DATA "FACA","4","BOLSA","9","BILHETE","10","LANTERNA","18","CHAVE","19","PISTA ESCRITA","20","MALA COM DINHEIRO","26"
8060 PRINT ''TAB 11; INK 6;"A CIDADE"''"  ESCRITA POR NEIL PELLINACCI"''"      CARREGUE EM QUALQUER TECLA"
8070 PAUSE P: PAUSE 0: FOR Z=50 TO -20 STEP -5: BEEP .01,Z: BEEP .01,Z-3: BEER .01,Z+6: NEXT Z
8080 RETURN
8900 INPUT "TEM A CERTEZA (S/N)? "; LINE A$: IF A$="" THEN GO TO 8900
8910 IF A$(P)="S" THEN GO TO 9000
8920 GO TO C
9000 INPUT "QUER NOVA AVENTURA (S/N)? "; LINE A$: IF A$="" THEN GO TO 9000
9010 IF A$(P)="N" THEN STOP
9020 RUN 900
