'- Pares de Cartas , ZX-Spectrum , 49 Jogos Explosivos Para o ZX Spectrum , Página 120
'- não testado
'- Digitador desconhecido

30 BORDER 0: PAPER 0: INK 7: CLS
50 DIM a (4,5): RANDOMIZE
60 LET a$="1112131415212223242531323334354142434445"
80 FOR i=1 TO 10
90 FOR j=1 TO 2
100 LET l=LEN a$: LET b=INT (RND*l/2)*2+1: LET b$=a$(b TO b+1)
120 LET x=VAL b$(1) : LET y=VAL b$(2)
130 LET a$=a$( TO b-1)+(a$(b+2 TO ) AND b<> l-1)
150 LET a(x,y)=i: NEXT j: NEXT i
200 LET sc=0
210 FOR i=1 TO 5: PRINT AT 0,4*i-1; INK 2; INVERSE1; BRIGHT 1;i: NEXT i
220 FOR j=0 TO 3: PRINT AT j*5+3,0; INK 2; INVERSE 1; BRIGHT 1;j+1: FOR i=0 TO 4: FOR k=2 TO 5: PRINT AT j*5+k,i*4+2; INK 6;"\::\::                                \::": NEXT k: BEEP .03,30: NEXT i: NEXT j
330 PRINT AT 6,23;"Virar";AT 8,25;","
340 IF INKEY$<>"" THEN GO TO 340
350 LET q$=INKEY$: IF q$<"1" OR q$>"4" THEN GO TO 350
360 PRINT AT 8,24;q$: BEEP .05,20: LET q1=VAL q$
370 IF INKEY$<>"" THEN GO TO 370
380 LET q$=INKEY$: IF q$<"1" OR q$>"5" THEN GO TO 380
390 PRINT AT 8,26;q$: BEEP .05,20: LET q2=UAL q$
400 IF a(q1,q2)<>0 THEN GO TO 450
410 PRINT AT 10,23; INVERSE 1;" Repita"
420 BEEP 1,-10: PRINT AT 8;24;"   ";AT 10,23;"         "
430 GO TO 330
450 PRINT AT 6,23;"         ";AT 8,24,"   "
470 LET x1=(q1-1)*5+2: LET y1=(q2-1)*4+2: LET x=x1: LET y=y1: LET c=q1: LET d=q2: GO SUB 800
490 LET q1=c: LET q2=d
530 PRINT AT 6,23;"Virar";AT 8,25;","
540 IF INKEY$<>"" THEN GO TO 540
550 LET A$=INKEY$: IF q$<"1" OR q$>"4" THEN GO TO 550
560 PRINT AT 8,24;q$: BEEP .05,20: LET p1=VAL q$
570 IF INKEY$<>"" THEN GO TO 570
580 LET q$=INKEY$: IF q$<"1" OR q$>"5" THEN GO TO 580
590 PRINT AT 8,26;q$: BEEP .05,20: LET p2=VAL q$
600 IF a(p1,p2)<>0 THEN GO TO 650
610 PRINT AT 10,23; INVERSE 1;"Repita"
620 BEEP 1,-10: PRINT AT 8,24;"   ";AT 10,23;"         "
630 GO TO 530
650 PRINT AT 6,23;"         ";AT 8,24;"   "
670 LET x2=(p1-1)*5+2: LET y2=(p2-1)*4-+2: LET x=x2: LET y=y2: LET c=p1: LET d=p2: GO SUB 800
690 LET p1=c: LET p2=d
695 LET sc=sc+1
700 IF a(q1,q2)<>a(p1,p2) THEN GO TO 760
705 FOR i=0 TO 12 STEP 6: BEEP .1,i: NEXT i
710 FOR i=0 TO 3: PRINT AT x1+i,y1;"   ";AT x2+i,y2;"   ": NEXT i
720 LET a(q1,q2)=0: LET a(p1,p2)=0
730 LET c=0: FOR i=1 TO 4: FOR j=1 TO 5: LET c=c+a(i,j): NEXT j: NEXT i
740 IF c=0 THEN GO TO 900
750 GO TO 300
760 BEEP .6,0
765 FOR f=1 TO 200: NEXT f: FOR i=0 TO 3: PRINT AT x1+i,y1; INK 6;"\::\::\::"; AT x2+i,y2; INK 6;"\::\::\::": NEXT i
770 GO TO 300
800 RESTORE 1000: FOR z=1 TO a(c,d): READ z$: NEXT z
820 PRINT AT x,y;z$( TO 3); AT x+1,y;z$(4 TO 6)
830 PRINT AT x+2,y,z$(7 TO 9);AT x+3,y;z$(10 TO 12)
850 RETURN
900 CLS
920 PRINT AT 8,2;"Voce limpou a tabela apos";AT 10,11;sc;" lances"
930 FOR i=1 TO 25: BEEP .01,i: NEXT i
940 LET a$="Carregue numa tecla.": PRINT AT 12;2;
950 FOR 1=1 TO LEN a$: PRINT INK 6;a$(i);: IF a$(i)<>" " THEN BEEP .03,20
952 IF a$(i)=" " THEN PAUSE 2
955 NEXT i
960 IF INKEY$"" THEN GO TO 960
970 RUN
1000 DATA "\  \::\  \::\  \::\::\  \::\  \::\  ","\::\::\::\  \  \  \  \  \  \::\::\::","\::\::\::\  \::\  \  \::\  \::\::\::","\::\  \::\  \::\  \  \::\  \::\  \::","\  \  \  \::\::\::\::\::\::\  \  \  "
1010 DATA "\::\::\::\::\  \::\::\  \::\::\::\::","\  \::\  \..\::\..\''\::\''\  \::\  ","\:'\''\':\:.\..\.:\:'\''\':\:.\..\.:","\  \  \  \  \::\  \  \::\  \  \  \  ","\::\  \::\::\::\::\::\::\::\::\  \::"
