'- Pintura , ZX-Spectrum , 49 Jogos Explosivos Para o ZX Spectrum , Página 218
'- Não testado
'- Digitador desconhecido

10 CIRCLE 120,80,15
20 PLOT 100,60
30 DRAW 40,0
40 DRAW 0,40
50 DRAW -40,0
60 DRAW 0,-40
70 GO SUB 9000
100 STOP
9000 DIM a$(9999)
9010 DIM b$(9999)
9020 LET z=1
9030 LET x=105
9040 LET y=80
9050 PLOT x,y
9060 IF POINT (x+1,y)+POINT (x-1,y)+POINT (x,y+1)+POINT (x,y-1)<>4 THEN GO TO 9120
9070 LET z=z-1
9080 IF z=0 THEN RETURN
9090 LET x=CODE a$(z)
9100 LET y=CODE b$(z)
9110 GO TO 9050
9120 LET a$(z)=CHR$ x
9130 LET b$(z)=CHR$ y
9140 LET z=z+1
9150 FOR c=-1 TO 1
9160 FOR d=-(c=0) TO (c=0) STEP 2
9170 IF POINT (x+c,y+d)=0 THEN GO TO 9200
9180 NEXT d
9190 NEXT c
9200 LET x=x+c
9210 LET y=y+d
9220 GO TO 9050
